Introduction to R
…
count: false
 
## Make a graph
.panel1-graph_country-auto[

```r
*globalData2019clean
```
]
 
.panel2-graph_country-auto[

```
# A tibble: 5,001 x 8
   country   SEX   AGE BETTER_GENDER COUNTRY_SATIS ECON_SIT BELIEVE_GOD
   <fct>   <dbl> <dbl>         <dbl>         <dbl>    <dbl>       <dbl>
 1 Kenya       2    21             1             2        4           2
 2 Kenya       1    27             2             2        4           2
 3 Kenya       2    23             1             2        3           2
 4 Kenya       1    50             1             2        4           2
 5 Kenya       1    24             2             2        4           2
 6 Kenya       2    18             2             2        4           2
 7 Kenya       1    33             2             2        4           2
 8 Kenya       2    28             1             2        3           2
 9 Kenya       2    50             1             2        4           2
10 Kenya       1    23             1             1        2           1
# … with 4,991 more rows, and 1 more variable: GLOBAL_COMMUNITY <dbl>
```
…
count: false
 
## Make a fancier graph
.panel1-graph_country_fancy-auto[

```r
*globalData2019clean
```
]
 
.panel2-graph_country_fancy-auto[

```
# A tibble: 5,001 x 8
   country   SEX   AGE BETTER_GENDER COUNTRY_SATIS ECON_SIT BELIEVE_GOD
   <fct>   <dbl> <dbl>         <dbl>         <dbl>    <dbl>       <dbl>
 1 Kenya       2    21             1             2        4           2
 2 Kenya       1    27             2             2        4           2
 3 Kenya       2    23             1             2        3           2
 4 Kenya       1    50             1             2        4           2
 5 Kenya       1    24             2             2        4           2
 6 Kenya       2    18             2             2        4           2
 7 Kenya       1    33             2             2        4           2
 8 Kenya       2    28             1             2        3           2
 9 Kenya       2    50             1             2        4           2
10 Kenya       1    23             1             1        2           1
# … with 4,991 more rows, and 1 more variable: GLOBAL_COMMUNITY <dbl>
```
…
