Introduction to R
…
count: false
 
## Basic bar chart
.panel1-my_bar-auto[

```r
*globalData2019clean
```
]
 
.panel2-my_bar-auto[

```
# A tibble: 5,001 x 7
   country SEX      AGE BETTER_GENDER COUNTRY_SATIS ECON_SIT      LADDER_NOW
   <fct>   <fct>  <dbl> <fct>         <fct>         <fct>              <dbl>
 1 Kenya   Female    21 Men           Dissatisfied  Very bad              10
 2 Kenya   Male      27 Women         Dissatisfied  Very bad               5
 3 Kenya   Female    23 Men           Dissatisfied  Somewhat bad          10
 4 Kenya   Male      50 Men           Dissatisfied  Very bad               5
 5 Kenya   Male      24 Women         Dissatisfied  Very bad              10
 6 Kenya   Female    18 Women         Dissatisfied  Very bad              10
 7 Kenya   Male      33 Women         Dissatisfied  Very bad              10
 8 Kenya   Female    28 Men           Dissatisfied  Somewhat bad          10
 9 Kenya   Female    50 Men           Dissatisfied  Very bad               0
10 Kenya   Male      23 Men           Satisfied     Somewhat good          5
# … with 4,991 more rows
```
…
count: false
 
## Fancy bar chart
.panel1-my_bar_fancy-auto[

```r
*globalData2019clean
```
]
 
.panel2-my_bar_fancy-auto[

```
# A tibble: 5,001 x 7
   country SEX      AGE BETTER_GENDER COUNTRY_SATIS ECON_SIT      LADDER_NOW
   <fct>   <fct>  <dbl> <fct>         <fct>         <fct>              <dbl>
 1 Kenya   Female    21 Men           Dissatisfied  Very bad              10
 2 Kenya   Male      27 Women         Dissatisfied  Very bad               5
 3 Kenya   Female    23 Men           Dissatisfied  Somewhat bad          10
 4 Kenya   Male      50 Men           Dissatisfied  Very bad               5
 5 Kenya   Male      24 Women         Dissatisfied  Very bad              10
 6 Kenya   Female    18 Women         Dissatisfied  Very bad              10
 7 Kenya   Male      33 Women         Dissatisfied  Very bad              10
 8 Kenya   Female    28 Men           Dissatisfied  Somewhat bad          10
 9 Kenya   Female    50 Men           Dissatisfied  Very bad               0
10 Kenya   Male      23 Men           Satisfied     Somewhat good          5
# … with 4,991 more rows
```
…
count: false
 
## Fancy bar chart with colors
.panel1-my_bar_fancy_colors-auto[

```r
*globalData2019clean
```
]
 
.panel2-my_bar_fancy_colors-auto[

```
# A tibble: 5,001 x 7
   country SEX      AGE BETTER_GENDER COUNTRY_SATIS ECON_SIT      LADDER_NOW
   <fct>   <fct>  <dbl> <fct>         <fct>         <fct>              <dbl>
 1 Kenya   Female    21 Men           Dissatisfied  Very bad              10
 2 Kenya   Male      27 Women         Dissatisfied  Very bad               5
 3 Kenya   Female    23 Men           Dissatisfied  Somewhat bad          10
 4 Kenya   Male      50 Men           Dissatisfied  Very bad               5
 5 Kenya   Male      24 Women         Dissatisfied  Very bad              10
 6 Kenya   Female    18 Women         Dissatisfied  Very bad              10
 7 Kenya   Male      33 Women         Dissatisfied  Very bad              10
 8 Kenya   Female    28 Men           Dissatisfied  Somewhat bad          10
 9 Kenya   Female    50 Men           Dissatisfied  Very bad               0
10 Kenya   Male      23 Men           Satisfied     Somewhat good          5
# … with 4,991 more rows
```
…
count: false
 
## Fancy bar chart without legend
.panel1-my_bar_fancy_legend-auto[

```r
*globalData2019clean
```
]
 
.panel2-my_bar_fancy_legend-auto[

```
# A tibble: 5,001 x 7
   country SEX      AGE BETTER_GENDER COUNTRY_SATIS ECON_SIT      LADDER_NOW
   <fct>   <fct>  <dbl> <fct>         <fct>         <fct>              <dbl>
 1 Kenya   Female    21 Men           Dissatisfied  Very bad              10
 2 Kenya   Male      27 Women         Dissatisfied  Very bad               5
 3 Kenya   Female    23 Men           Dissatisfied  Somewhat bad          10
 4 Kenya   Male      50 Men           Dissatisfied  Very bad               5
 5 Kenya   Male      24 Women         Dissatisfied  Very bad              10
 6 Kenya   Female    18 Women         Dissatisfied  Very bad              10
 7 Kenya   Male      33 Women         Dissatisfied  Very bad              10
 8 Kenya   Female    28 Men           Dissatisfied  Somewhat bad          10
 9 Kenya   Female    50 Men           Dissatisfied  Very bad               0
10 Kenya   Male      23 Men           Satisfied     Somewhat good          5
# … with 4,991 more rows
```
…
count: false
 
## You try it example
.panel1-you-try-auto[

```r
*globalData2019clean
```
]
 
.panel2-you-try-auto[

```
# A tibble: 5,001 x 7
   country SEX      AGE BETTER_GENDER COUNTRY_SATIS ECON_SIT      LADDER_NOW
   <fct>   <fct>  <dbl> <fct>         <fct>         <fct>              <dbl>
 1 Kenya   Female    21 Men           Dissatisfied  Very bad              10
 2 Kenya   Male      27 Women         Dissatisfied  Very bad               5
 3 Kenya   Female    23 Men           Dissatisfied  Somewhat bad          10
 4 Kenya   Male      50 Men           Dissatisfied  Very bad               5
 5 Kenya   Male      24 Women         Dissatisfied  Very bad              10
 6 Kenya   Female    18 Women         Dissatisfied  Very bad              10
 7 Kenya   Male      33 Women         Dissatisfied  Very bad              10
 8 Kenya   Female    28 Men           Dissatisfied  Somewhat bad          10
 9 Kenya   Female    50 Men           Dissatisfied  Very bad               0
10 Kenya   Male      23 Men           Satisfied     Somewhat good          5
# … with 4,991 more rows
```
…
count: false
 
## Grouped bar plot
.panel1-grouped_bar-auto[

```r
*globalData2019clean
```
]
 
.panel2-grouped_bar-auto[

```
# A tibble: 5,001 x 7
   country SEX      AGE BETTER_GENDER COUNTRY_SATIS ECON_SIT      LADDER_NOW
   <fct>   <fct>  <dbl> <fct>         <fct>         <fct>              <dbl>
 1 Kenya   Female    21 Men           Dissatisfied  Very bad              10
 2 Kenya   Male      27 Women         Dissatisfied  Very bad               5
 3 Kenya   Female    23 Men           Dissatisfied  Somewhat bad          10
 4 Kenya   Male      50 Men           Dissatisfied  Very bad               5
 5 Kenya   Male      24 Women         Dissatisfied  Very bad              10
 6 Kenya   Female    18 Women         Dissatisfied  Very bad              10
 7 Kenya   Male      33 Women         Dissatisfied  Very bad              10
 8 Kenya   Female    28 Men           Dissatisfied  Somewhat bad          10
 9 Kenya   Female    50 Men           Dissatisfied  Very bad               0
10 Kenya   Male      23 Men           Satisfied     Somewhat good          5
# … with 4,991 more rows
```
…
## Grouped bar plot
.panel1-grouped_bar-auto[

```r
globalData2019clean %>%
* drop_na(BETTER_GENDER)
```
]
 
.panel2-grouped_bar-auto[

```
# A tibble: 4,777 x 7
   country SEX      AGE BETTER_GENDER COUNTRY_SATIS ECON_SIT      LADDER_NOW
   <fct>   <fct>  <dbl> <fct>         <fct>         <fct>              <dbl>
 1 Kenya   Female    21 Men           Dissatisfied  Very bad              10
 2 Kenya   Male      27 Women         Dissatisfied  Very bad               5
 3 Kenya   Female    23 Men           Dissatisfied  Somewhat bad          10
 4 Kenya   Male      50 Men           Dissatisfied  Very bad               5
 5 Kenya   Male      24 Women         Dissatisfied  Very bad              10
 6 Kenya   Female    18 Women         Dissatisfied  Very bad              10
 7 Kenya   Male      33 Women         Dissatisfied  Very bad              10
 8 Kenya   Female    28 Men           Dissatisfied  Somewhat bad          10
 9 Kenya   Female    50 Men           Dissatisfied  Very bad               0
10 Kenya   Male      23 Men           Satisfied     Somewhat good          5
# … with 4,767 more rows
```
…
count: false
 
## Answer to You try it!
.panel1-answerYti-auto[

```r
# Figure 2 code goes here
*globalData2019clean
```
]
 
.panel2-answerYti-auto[

```
# A tibble: 5,001 x 7
   country SEX      AGE BETTER_GENDER COUNTRY_SATIS ECON_SIT      LADDER_NOW
   <fct>   <fct>  <dbl> <fct>         <fct>         <fct>              <dbl>
 1 Kenya   Female    21 Men           Dissatisfied  Very bad              10
 2 Kenya   Male      27 Women         Dissatisfied  Very bad               5
 3 Kenya   Female    23 Men           Dissatisfied  Somewhat bad          10
 4 Kenya   Male      50 Men           Dissatisfied  Very bad               5
 5 Kenya   Male      24 Women         Dissatisfied  Very bad              10
 6 Kenya   Female    18 Women         Dissatisfied  Very bad              10
 7 Kenya   Male      33 Women         Dissatisfied  Very bad              10
 8 Kenya   Female    28 Men           Dissatisfied  Somewhat bad          10
 9 Kenya   Female    50 Men           Dissatisfied  Very bad               0
10 Kenya   Male      23 Men           Satisfied     Somewhat good          5
# … with 4,991 more rows
```
…
## Answer to You try it!
.panel1-answerYti-auto[

```r
# Figure 2 code goes here
globalData2019clean %>%
* drop_na(COUNTRY_SATIS)
```
]
 
.panel2-answerYti-auto[

```
# A tibble: 4,901 x 7
   country SEX      AGE BETTER_GENDER COUNTRY_SATIS ECON_SIT      LADDER_NOW
   <fct>   <fct>  <dbl> <fct>         <fct>         <fct>              <dbl>
 1 Kenya   Female    21 Men           Dissatisfied  Very bad              10
 2 Kenya   Male      27 Women         Dissatisfied  Very bad               5
 3 Kenya   Female    23 Men           Dissatisfied  Somewhat bad          10
 4 Kenya   Male      50 Men           Dissatisfied  Very bad               5
 5 Kenya   Male      24 Women         Dissatisfied  Very bad              10
 6 Kenya   Female    18 Women         Dissatisfied  Very bad              10
 7 Kenya   Male      33 Women         Dissatisfied  Very bad              10
 8 Kenya   Female    28 Men           Dissatisfied  Somewhat bad          10
 9 Kenya   Female    50 Men           Dissatisfied  Very bad               0
10 Kenya   Male      23 Men           Satisfied     Somewhat good          5
# … with 4,891 more rows
```
…
count: false
 
## Group percentages
.panel1-percents-auto[

```r
*globalData2019clean
```
]
 
.panel2-percents-auto[

```
# A tibble: 5,001 x 7
   country SEX      AGE BETTER_GENDER COUNTRY_SATIS ECON_SIT      LADDER_NOW
   <fct>   <fct>  <dbl> <fct>         <fct>         <fct>              <dbl>
 1 Kenya   Female    21 Men           Dissatisfied  Very bad              10
 2 Kenya   Male      27 Women         Dissatisfied  Very bad               5
 3 Kenya   Female    23 Men           Dissatisfied  Somewhat bad          10
 4 Kenya   Male      50 Men           Dissatisfied  Very bad               5
 5 Kenya   Male      24 Women         Dissatisfied  Very bad              10
 6 Kenya   Female    18 Women         Dissatisfied  Very bad              10
 7 Kenya   Male      33 Women         Dissatisfied  Very bad              10
 8 Kenya   Female    28 Men           Dissatisfied  Somewhat bad          10
 9 Kenya   Female    50 Men           Dissatisfied  Very bad               0
10 Kenya   Male      23 Men           Satisfied     Somewhat good          5
# … with 4,991 more rows
```
…
## Group percentages
.panel1-percents-auto[

```r
globalData2019clean %>%
* group_by(COUNTRY_SATIS, SEX)
```
]
 
.panel2-percents-auto[

```
# A tibble: 5,001 x 7
# Groups:   COUNTRY_SATIS, SEX [6]
   country SEX      AGE BETTER_GENDER COUNTRY_SATIS ECON_SIT      LADDER_NOW
   <fct>   <fct>  <dbl> <fct>         <fct>         <fct>              <dbl>
 1 Kenya   Female    21 Men           Dissatisfied  Very bad              10
 2 Kenya   Male      27 Women         Dissatisfied  Very bad               5
 3 Kenya   Female    23 Men           Dissatisfied  Somewhat bad          10
 4 Kenya   Male      50 Men           Dissatisfied  Very bad               5
 5 Kenya   Male      24 Women         Dissatisfied  Very bad              10
 6 Kenya   Female    18 Women         Dissatisfied  Very bad              10
 7 Kenya   Male      33 Women         Dissatisfied  Very bad              10
 8 Kenya   Female    28 Men           Dissatisfied  Somewhat bad          10
 9 Kenya   Female    50 Men           Dissatisfied  Very bad               0
10 Kenya   Male      23 Men           Satisfied     Somewhat good          5
# … with 4,991 more rows
```
…
count: false
 
## Grouped bar plot
.panel1-grouped_bar_perc-auto[

```r
*globalData2019clean
```
]
 
.panel2-grouped_bar_perc-auto[

```
# A tibble: 5,001 x 7
   country SEX      AGE BETTER_GENDER COUNTRY_SATIS ECON_SIT      LADDER_NOW
   <fct>   <fct>  <dbl> <fct>         <fct>         <fct>              <dbl>
 1 Kenya   Female    21 Men           Dissatisfied  Very bad              10
 2 Kenya   Male      27 Women         Dissatisfied  Very bad               5
 3 Kenya   Female    23 Men           Dissatisfied  Somewhat bad          10
 4 Kenya   Male      50 Men           Dissatisfied  Very bad               5
 5 Kenya   Male      24 Women         Dissatisfied  Very bad              10
 6 Kenya   Female    18 Women         Dissatisfied  Very bad              10
 7 Kenya   Male      33 Women         Dissatisfied  Very bad              10
 8 Kenya   Female    28 Men           Dissatisfied  Somewhat bad          10
 9 Kenya   Female    50 Men           Dissatisfied  Very bad               0
10 Kenya   Male      23 Men           Satisfied     Somewhat good          5
# … with 4,991 more rows
```
…
## Grouped bar plot
.panel1-grouped_bar_perc-auto[

```r
globalData2019clean %>%
* group_by(COUNTRY_SATIS, SEX)
```
]
 
.panel2-grouped_bar_perc-auto[

```
# A tibble: 5,001 x 7
# Groups:   COUNTRY_SATIS, SEX [6]
   country SEX      AGE BETTER_GENDER COUNTRY_SATIS ECON_SIT      LADDER_NOW
   <fct>   <fct>  <dbl> <fct>         <fct>         <fct>              <dbl>
 1 Kenya   Female    21 Men           Dissatisfied  Very bad              10
 2 Kenya   Male      27 Women         Dissatisfied  Very bad               5
 3 Kenya   Female    23 Men           Dissatisfied  Somewhat bad          10
 4 Kenya   Male      50 Men           Dissatisfied  Very bad               5
 5 Kenya   Male      24 Women         Dissatisfied  Very bad              10
 6 Kenya   Female    18 Women         Dissatisfied  Very bad              10
 7 Kenya   Male      33 Women         Dissatisfied  Very bad              10
 8 Kenya   Female    28 Men           Dissatisfied  Somewhat bad          10
 9 Kenya   Female    50 Men           Dissatisfied  Very bad               0
10 Kenya   Male      23 Men           Satisfied     Somewhat good          5
# … with 4,991 more rows
```
…
count: false
 
## Histogram
.panel1-histogram-auto[

```r
# Histogram for age
*globalData2019clean
```
]
 
.panel2-histogram-auto[

```
# A tibble: 5,001 x 7
   country SEX      AGE BETTER_GENDER COUNTRY_SATIS ECON_SIT      LADDER_NOW
   <fct>   <fct>  <dbl> <fct>         <fct>         <fct>              <dbl>
 1 Kenya   Female    21 Men           Dissatisfied  Very bad              10
 2 Kenya   Male      27 Women         Dissatisfied  Very bad               5
 3 Kenya   Female    23 Men           Dissatisfied  Somewhat bad          10
 4 Kenya   Male      50 Men           Dissatisfied  Very bad               5
 5 Kenya   Male      24 Women         Dissatisfied  Very bad              10
 6 Kenya   Female    18 Women         Dissatisfied  Very bad              10
 7 Kenya   Male      33 Women         Dissatisfied  Very bad              10
 8 Kenya   Female    28 Men           Dissatisfied  Somewhat bad          10
 9 Kenya   Female    50 Men           Dissatisfied  Very bad               0
10 Kenya   Male      23 Men           Satisfied     Somewhat good          5
# … with 4,991 more rows
```
…
count: false
 
## Fancy histogram
.panel1-fancyhistogram-auto[

```r
# Histogram for age
*globalData2019clean
```
]
 
.panel2-fancyhistogram-auto[

```
# A tibble: 5,001 x 7
   country SEX      AGE BETTER_GENDER COUNTRY_SATIS ECON_SIT      LADDER_NOW
   <fct>   <fct>  <dbl> <fct>         <fct>         <fct>              <dbl>
 1 Kenya   Female    21 Men           Dissatisfied  Very bad              10
 2 Kenya   Male      27 Women         Dissatisfied  Very bad               5
 3 Kenya   Female    23 Men           Dissatisfied  Somewhat bad          10
 4 Kenya   Male      50 Men           Dissatisfied  Very bad               5
 5 Kenya   Male      24 Women         Dissatisfied  Very bad              10
 6 Kenya   Female    18 Women         Dissatisfied  Very bad              10
 7 Kenya   Male      33 Women         Dissatisfied  Very bad              10
 8 Kenya   Female    28 Men           Dissatisfied  Somewhat bad          10
 9 Kenya   Female    50 Men           Dissatisfied  Very bad               0
10 Kenya   Male      23 Men           Satisfied     Somewhat good          5
# … with 4,991 more rows
```
…
count: false
 
## Box plot
.panel1-boxplot-auto[

```r
*globalData2019clean
```
]
 
.panel2-boxplot-auto[

```
# A tibble: 5,001 x 7
   country SEX      AGE BETTER_GENDER COUNTRY_SATIS ECON_SIT      LADDER_NOW
   <fct>   <fct>  <dbl> <fct>         <fct>         <fct>              <dbl>
 1 Kenya   Female    21 Men           Dissatisfied  Very bad              10
 2 Kenya   Male      27 Women         Dissatisfied  Very bad               5
 3 Kenya   Female    23 Men           Dissatisfied  Somewhat bad          10
 4 Kenya   Male      50 Men           Dissatisfied  Very bad               5
 5 Kenya   Male      24 Women         Dissatisfied  Very bad              10
 6 Kenya   Female    18 Women         Dissatisfied  Very bad              10
 7 Kenya   Male      33 Women         Dissatisfied  Very bad              10
 8 Kenya   Female    28 Men           Dissatisfied  Somewhat bad          10
 9 Kenya   Female    50 Men           Dissatisfied  Very bad               0
10 Kenya   Male      23 Men           Satisfied     Somewhat good          5
# … with 4,991 more rows
```
…
count: false
 
## Fancier box plot
.panel1-fancybox-auto[

```r
*globalData2019clean
```
]
 
.panel2-fancybox-auto[

```
# A tibble: 5,001 x 7
   country SEX      AGE BETTER_GENDER COUNTRY_SATIS ECON_SIT      LADDER_NOW
   <fct>   <fct>  <dbl> <fct>         <fct>         <fct>              <dbl>
 1 Kenya   Female    21 Men           Dissatisfied  Very bad              10
 2 Kenya   Male      27 Women         Dissatisfied  Very bad               5
 3 Kenya   Female    23 Men           Dissatisfied  Somewhat bad          10
 4 Kenya   Male      50 Men           Dissatisfied  Very bad               5
 5 Kenya   Male      24 Women         Dissatisfied  Very bad              10
 6 Kenya   Female    18 Women         Dissatisfied  Very bad              10
 7 Kenya   Male      33 Women         Dissatisfied  Very bad              10
 8 Kenya   Female    28 Men           Dissatisfied  Somewhat bad          10
 9 Kenya   Female    50 Men           Dissatisfied  Very bad               0
10 Kenya   Male      23 Men           Satisfied     Somewhat good          5
# … with 4,991 more rows
```
…
